ASCIIConverter/simulation/qsim/Preprocessor.msim.vcd
$comment
	File created using the following command:
		vcd file Preprocessor.msim.vcd -direction
$end
$date
	Wed Feb 13 09:39:26 2019
$end
$version
	ModelSim Version 10.4d
$end
$timescale
	1ps
$end

$scope module Preprocessor_vlg_vec_tst $end
$var reg 1 ! clk $end
$var reg 1 " ready $end
$var reg 1 # reset $end
$var wire 1 $ k [31] $end
$var wire 1 % k [30] $end
$var wire 1 & k [29] $end
$var wire 1 ' k [28] $end
$var wire 1 ( k [27] $end
$var wire 1 ) k [26] $end
$var wire 1 * k [25] $end
$var wire 1 + k [24] $end
$var wire 1 , k [23] $end
$var wire 1 - k [22] $end
$var wire 1 . k [21] $end
$var wire 1 / k [20] $end
$var wire 1 0 k [19] $end
$var wire 1 1 k [18] $end
$var wire 1 2 k [17] $end
$var wire 1 3 k [16] $end
$var wire 1 4 k [15] $end
$var wire 1 5 k [14] $end
$var wire 1 6 k [13] $end
$var wire 1 7 k [12] $end
$var wire 1 8 k [11] $end
$var wire 1 9 k [10] $end
$var wire 1 : k [9] $end
$var wire 1 ; k [8] $end
$var wire 1 < k [7] $end
$var wire 1 = k [6] $end
$var wire 1 > k [5] $end
$var wire 1 ? k [4] $end
$var wire 1 @ k [3] $end
$var wire 1 A k [2] $end
$var wire 1 B k [1] $end
$var wire 1 C k [0] $end
$var wire 1 D n [31] $end
$var wire 1 E n [30] $end
$var wire 1 F n [29] $end
$var wire 1 G n [28] $end
$var wire 1 H n [27] $end
$var wire 1 I n [26] $end
$var wire 1 J n [25] $end
$var wire 1 K n [24] $end
$var wire 1 L n [23] $end
$var wire 1 M n [22] $end
$var wire 1 N n [21] $end
$var wire 1 O n [20] $end
$var wire 1 P n [19] $end
$var wire 1 Q n [18] $end
$var wire 1 R n [17] $end
$var wire 1 S n [16] $end
$var wire 1 T n [15] $end
$var wire 1 U n [14] $end
$var wire 1 V n [13] $end
$var wire 1 W n [12] $end
$var wire 1 X n [11] $end
$var wire 1 Y n [10] $end
$var wire 1 Z n [9] $end
$var wire 1 [ n [8] $end
$var wire 1 \ n [7] $end
$var wire 1 ] n [6] $end
$var wire 1 ^ n [5] $end
$var wire 1 _ n [4] $end
$var wire 1 ` n [3] $end
$var wire 1 a n [2] $end
$var wire 1 b n [1] $end
$var wire 1 c n [0] $end

$scope module i1 $end
$var wire 1 d gnd $end
$var wire 1 e vcc $end
$var wire 1 f unknown $end
$var tri1 1 g devclrn $end
$var tri1 1 h devpor $end
$var tri1 1 i devoe $end
$var wire 1 j reset~input_o $end
$var wire 1 k k[0]~output_o $end
$var wire 1 l k[1]~output_o $end
$var wire 1 m k[2]~output_o $end
$var wire 1 n k[3]~output_o $end
$var wire 1 o k[4]~output_o $end
$var wire 1 p k[5]~output_o $end
$var wire 1 q k[6]~output_o $end
$var wire 1 r k[7]~output_o $end
$var wire 1 s k[8]~output_o $end
$var wire 1 t k[9]~output_o $end
$var wire 1 u k[10]~output_o $end
$var wire 1 v k[11]~output_o $end
$var wire 1 w k[12]~output_o $end
$var wire 1 x k[13]~output_o $end
$var wire 1 y k[14]~output_o $end
$var wire 1 z k[15]~output_o $end
$var wire 1 { k[16]~output_o $end
$var wire 1 | k[17]~output_o $end
$var wire 1 } k[18]~output_o $end
$var wire 1 ~ k[19]~output_o $end
$var wire 1 !! k[20]~output_o $end
$var wire 1 "! k[21]~output_o $end
$var wire 1 #! k[22]~output_o $end
$var wire 1 $! k[23]~output_o $end
$var wire 1 %! k[24]~output_o $end
$var wire 1 &! k[25]~output_o $end
$var wire 1 '! k[26]~output_o $end
$var wire 1 (! k[27]~output_o $end
$var wire 1 )! k[28]~output_o $end
$var wire 1 *! k[29]~output_o $end
$var wire 1 +! k[30]~output_o $end
$var wire 1 ,! k[31]~output_o $end
$var wire 1 -! n[0]~output_o $end
$var wire 1 .! n[1]~output_o $end
$var wire 1 /! n[2]~output_o $end
$var wire 1 0! n[3]~output_o $end
$var wire 1 1! n[4]~output_o $end
$var wire 1 2! n[5]~output_o $end
$var wire 1 3! n[6]~output_o $end
$var wire 1 4! n[7]~output_o $end
$var wire 1 5! n[8]~output_o $end
$var wire 1 6! n[9]~output_o $end
$var wire 1 7! n[10]~output_o $end
$var wire 1 8! n[11]~output_o $end
$var wire 1 9! n[12]~output_o $end
$var wire 1 :! n[13]~output_o $end
$var wire 1 ;! n[14]~output_o $end
$var wire 1 <! n[15]~output_o $end
$var wire 1 =! n[16]~output_o $end
$var wire 1 >! n[17]~output_o $end
$var wire 1 ?! n[18]~output_o $end
$var wire 1 @! n[19]~output_o $end
$var wire 1 A! n[20]~output_o $end
$var wire 1 B! n[21]~output_o $end
$var wire 1 C! n[22]~output_o $end
$var wire 1 D! n[23]~output_o $end
$var wire 1 E! n[24]~output_o $end
$var wire 1 F! n[25]~output_o $end
$var wire 1 G! n[26]~output_o $end
$var wire 1 H! n[27]~output_o $end
$var wire 1 I! n[28]~output_o $end
$var wire 1 J! n[29]~output_o $end
$var wire 1 K! n[30]~output_o $end
$var wire 1 L! n[31]~output_o $end
$var wire 1 M! clk~input_o $end
$var wire 1 N! ready~input_o $end
$var wire 1 O! k[0]~reg0_q $end
$var wire 1 P! k[10]~reg0_q $end
$var wire 1 Q! k[31]~reg0_q $end
$var wire 1 R! n[0]~reg0_q $end
$var wire 1 S! n[1]~reg0_q $end
$var wire 1 T! n[31]~reg0_q $end
$var wire 1 U! nBlocks [31] $end
$var wire 1 V! nBlocks [30] $end
$var wire 1 W! nBlocks [29] $end
$var wire 1 X! nBlocks [28] $end
$var wire 1 Y! nBlocks [27] $end
$var wire 1 Z! nBlocks [26] $end
$var wire 1 [! nBlocks [25] $end
$var wire 1 \! nBlocks [24] $end
$var wire 1 ]! nBlocks [23] $end
$var wire 1 ^! nBlocks [22] $end
$var wire 1 _! nBlocks [21] $end
$var wire 1 `! nBlocks [20] $end
$var wire 1 a! nBlocks [19] $end
$var wire 1 b! nBlocks [18] $end
$var wire 1 c! nBlocks [17] $end
$var wire 1 d! nBlocks [16] $end
$var wire 1 e! nBlocks [15] $end
$var wire 1 f! nBlocks [14] $end
$var wire 1 g! nBlocks [13] $end
$var wire 1 h! nBlocks [12] $end
$var wire 1 i! nBlocks [11] $end
$var wire 1 j! nBlocks [10] $end
$var wire 1 k! nBlocks [9] $end
$var wire 1 l! nBlocks [8] $end
$var wire 1 m! nBlocks [7] $end
$var wire 1 n! nBlocks [6] $end
$var wire 1 o! nBlocks [5] $end
$var wire 1 p! nBlocks [4] $end
$var wire 1 q! nBlocks [3] $end
$var wire 1 r! nBlocks [2] $end
$var wire 1 s! nBlocks [1] $end
$var wire 1 t! nBlocks [0] $end
$upscope $end
$upscope $end
$enddefinitions $end
#0
$dumpvars
0!
1"
0#
1C
0B
0A
0@
0?
0>
0=
0<
0;
0:
09
08
07
06
05
04
03
02
01
00
0/
0.
0-
0,
0+
0*
0)
0(
0'
0&
0%
1$
1c
0b
0a
0`
0_
0^
0]
0\
0[
0Z
0Y
0X
0W
0V
0U
0T
0S
0R
0Q
0P
0O
0N
0M
0L
0K
0J
0I
0H
0G
0F
0E
1D
0d
1e
xf
1g
1h
1i
0j
1k
0l
0m
0n
0o
0p
0q
0r
0s
0t
0u
0v
0w
0x
0y
0z
0{
0|
0}
0~
0!!
0"!
0#!
0$!
0%!
0&!
0'!
0(!
0)!
0*!
0+!
1,!
1-!
0.!
0/!
00!
01!
02!
03!
04!
05!
06!
07!
08!
09!
0:!
0;!
0<!
0=!
0>!
0?!
0@!
0A!
0B!
0C!
0D!
0E!
0F!
0G!
0H!
0I!
0J!
0K!
1L!
0M!
1N!
0O!
0P!
0Q!
0R!
0S!
0T!
0t!
zs!
zr!
zq!
zp!
zo!
zn!
zm!
zl!
zk!
zj!
zi!
zh!
zg!
zf!
ze!
zd!
zc!
zb!
za!
z`!
z_!
z^!
z]!
z\!
z[!
zZ!
zY!
zX!
zW!
zV!
zU!
$end
#10000
1!
1M!
1Q!
1O!
1t!
1P!
1u
0k
0,!
0$
0C
19
#20000
0!
0M!
#30000
1!
1M!
1T!
1R!
1S!
1.!
0-!
0L!
0D
0c
1b
#40000
0!
0M!
#50000
1!
1M!
#60000
0!
0M!
#70000
1!
1M!
#80000
0!
0M!
#90000
1!
1M!
#100000
0!
0M!
#110000
1!
1M!
#120000
0!
0M!
#130000
1!
1M!
#140000
0!
0M!
#150000
1!
1M!
#160000
0!
0M!
#170000
1!
1M!
#180000
0!
0M!
#190000
1!
1M!
#200000
0!
0M!
#210000
1!
1M!
#220000
0!
0M!
#230000
1!
1M!
#240000
0!
0M!
#250000
1!
1M!
#260000
0!
0M!
#270000
1!
1M!
#280000
0!
0M!
#290000
1!
1M!
#300000
0!
0M!
#310000
1!
1M!
#320000
0!
0M!
#330000
1!
1M!
#340000
0!
0M!
#350000
1!
1M!
#360000
0!
0M!
#370000
1!
1M!
#380000
0!
0M!
#390000
1!
1M!
#400000
0!
0M!
#410000
1!
1M!
#420000
0!
0M!
#430000
1!
1M!
#440000
0!
0M!
#450000
1!
1M!
#460000
0!
0M!
#470000
1!
1M!
#480000
0!
0M!
#490000
1!
1M!
#500000
0!
0M!
#510000
1!
1M!
#520000
0!
0M!
#530000
1!
1M!
#540000
0!
0M!
#550000
1!
1M!
#560000
0!
0M!
#570000
1!
1M!
#580000
0!
0M!
#590000
1!
1M!
#600000
0!
0M!
#610000
1!
1M!
#620000
0!
0M!
#630000
1!
1M!
#640000
0!
0M!
#650000
1!
1M!
#660000
0!
0M!
#670000
1!
1M!
#680000
0!
0M!
#690000
1!
1M!
#700000
0!
0M!
#710000
1!
1M!
#720000
0!
0M!
#730000
1!
1M!
#740000
0!
0M!
#750000
1!
1M!
#760000
0!
0M!
#770000
1!
1M!
#780000
0!
0M!
#790000
1!
1M!
#800000
0!
0M!
#810000
1!
1M!
#820000
0!
0M!
#830000
1!
1M!
#840000
0!
0M!
#850000
1!
1M!
#860000
0!
0M!
#870000
1!
1M!
#880000
0!
0M!
#890000
1!
1M!
#900000
0!
0M!
#910000
1!
1M!
#920000
0!
0M!
#930000
1!
1M!
#940000
0!
0M!
#950000
1!
1M!
#960000
0!
0M!
#970000
1!
1M!
#980000
0!
0M!
#990000
1!
1M!
